Chapter 10
…
A depth between 55 and 70:

filter(diamonds,depth >= 55, depth <= 70)

## # A tibble: 53,895 x 10
##    carat       cut color clarity depth table price     x     y     z
##    <dbl>     <ord> <ord>   <ord> <dbl> <dbl> <int> <dbl> <dbl> <dbl>
##  1  0.23     Ideal     E     SI2  61.5    55   326  3.95  3.98  2.43
##  2  0.21   Premium     E     SI1  59.8    61   326  3.89  3.84  2.31
##  3  0.23      Good     E     VS1  56.9    65   327  4.05  4.07  2.31
##  4  0.29   Premium     I     VS2  62.4    58   334  4.20  4.23  2.63
##  5  0.31      Good     J     SI2  63.3    58   335  4.34  4.35  2.75
##  6  0.24 Very Good     J    VVS2  62.8    57   336  3.94  3.96  2.48
##  7  0.24 Very Good     I    VVS1  62.3    57   336  3.95  3.98  2.47
##  8  0.26 Very Good     H     SI1  61.9    55   337  4.07  4.11  2.53
##  9  0.22      Fair     E     VS2  65.1    61   337  3.87  3.78  2.49
## 10  0.23 Very Good     H     VS1  59.4    61   338  4.00  4.05  2.39
## # ... with 53,885 more rows

A carat smaller than the median carat:

filter(diamonds,carat < median(carat))

## # A tibble: 25,181 x 10
##    carat       cut color clarity depth table price     x     y     z
##    <dbl>     <ord> <ord>   <ord> <dbl> <dbl> <int> <dbl> <dbl> <dbl>
##  1  0.23     Ideal     E     SI2  61.5    55   326  3.95  3.98  2.43
##  2  0.21   Premium     E     SI1  59.8    61   326  3.89  3.84  2.31
##  3  0.23      Good     E     VS1  56.9    65   327  4.05  4.07  2.31
##  4  0.29   Premium     I     VS2  62.4    58   334  4.20  4.23  2.63
##  5  0.31      Good     J     SI2  63.3    58   335  4.34  4.35  2.75
##  6  0.24 Very Good     J    VVS2  62.8    57   336  3.94  3.96  2.48
##  7  0.24 Very Good     I    VVS1  62.3    57   336  3.95  3.98  2.47
##  8  0.26 Very Good     H     SI1  61.9    55   337  4.07  4.11  2.53
##  9  0.22      Fair     E     VS2  65.1    61   337  3.87  3.78  2.49
## 10  0.23 Very Good     H     VS1  59.4    61   338  4.00  4.05  2.39
## # ... with 25,171 more rows

Cost more than $10,000 per carat:

filter(diamonds, round(price/carat, digits=2) > 10000)

## # A tibble: 617 x 10
##    carat       cut color clarity depth table price     x     y     z
##    <dbl>     <ord> <ord>   <ord> <dbl> <dbl> <int> <dbl> <dbl> <dbl>
##  1  0.63     Ideal     D      IF  62.5    55  6549  5.47  5.50  3.43
##  2  0.63     Ideal     D      IF  62.5    55  6607  5.50  5.47  3.43
##  3  0.90 Very Good     D      IF  62.4    54  9182  6.17  6.21  3.86
##  4  0.91     Ideal     E    VVS1  61.7    56  9636  6.18  6.23  3.83
##  5  1.00 Very Good     F      IF  63.2    63 10046  6.26  6.24  3.95
##  6  1.00   Premium     D    VVS2  61.6    60 10046  6.41  6.36  3.93
##  7  1.00     Ideal     F    VVS1  62.3    53 10058  6.37  6.43  3.99
##  8  1.00 Very Good     D    VVS2  61.7    58 10113  6.37  6.41  3.94
##  9  1.00   Premium     E    VVS1  60.3    54 10134  6.59  6.47  3.94
## 10  1.01   Premium     D    VVS2  60.2    58 10147  6.57  6.51  3.94
## # ... with 607 more rows

Are of good or better quality:

filter(diamonds, cut >= "Good")

## # A tibble: 52,330 x 10
##    carat       cut color clarity depth table price     x     y     z
##    <dbl>     <ord> <ord>   <ord> <dbl> <dbl> <int> <dbl> <dbl> <dbl>
##  1  0.23     Ideal     E     SI2  61.5    55   326  3.95  3.98  2.43
##  2  0.21   Premium     E     SI1  59.8    61   326  3.89  3.84  2.31
##  3  0.23      Good     E     VS1  56.9    65   327  4.05  4.07  2.31
##  4  0.29   Premium     I     VS2  62.4    58   334  4.20  4.23  2.63
##  5  0.31      Good     J     SI2  63.3    58   335  4.34  4.35  2.75
##  6  0.24 Very Good     J    VVS2  62.8    57   336  3.94  3.96  2.48
##  7  0.24 Very Good     I    VVS1  62.3    57   336  3.95  3.98  2.47
##  8  0.26 Very Good     H     SI1  61.9    55   337  4.07  4.11  2.53
##  9  0.23 Very Good     H     VS1  59.4    61   338  4.00  4.05  2.39
## 10  0.30      Good     J     SI1  64.0    55   339  4.25  4.28  2.73
## # ... with 52,320 more rows
…
We see in the plot above that \(y\) and \(z\) also have a linear relationship.

Install the ggplot2movies package and look at the movies that have a missing budget. How are they different from the movies with a budget? (Hint: try a frequency polygon plus coor = is.na(budget))

#install.packages("ggplot2movies")
library("ggplot2movies")
filter(movies,is.na(budget))

## # A tibble: 53,573 x 24
##                       title  year length budget rating votes    r1    r2
##                       <chr> <int>  <int>  <int>  <dbl> <int> <dbl> <dbl>
##  1                        $  1971    121     NA    6.4   348   4.5   4.5
##  2        $1000 a Touchdown  1939     71     NA    6.0    20   0.0  14.5
##  3   $21 a Day Once a Month  1941      7     NA    8.2     5   0.0   0.0
##  4                  $40,000  1996     70     NA    8.2     6  14.5   0.0
##  5 $50,000 Climax Show, The  1975     71     NA    3.4    17  24.5   4.5
##  6                    $pent  2000     91     NA    4.3    45   4.5   4.5
##  7                  $windle  2002     93     NA    5.3   200   4.5   0.0
##  8                     '15'  2002     25     NA    6.7    24   4.5   4.5
##  9                      '38  1987     97     NA    6.6    18   4.5   4.5
## 10                  '49-'17  1917     61     NA    6.0    51   4.5   0.0
## # ... with 53,563 more rows, and 16 more variables: r3 <dbl>, r4 <dbl>,
## #   r5 <dbl>, r6 <dbl>, r7 <dbl>, r8 <dbl>, r9 <dbl>, r10 <dbl>,
## #   mpaa <chr>, Action <int>, Animation <int>, Comedy <int>, Drama <int>,
## #   Documentary <int>, Romance <int>, Short <int>
…
## # A tibble: 8 x 2
##   clarity    price
##     <ord>    <dbl>
## 1      I1 3924.169
## 2     SI2 5063.029
## 3     SI1 3996.001
## 4     VS2 3924.989
## 5     VS1 3839.455
## 6    VVS2 3283.737
## 7    VVS1 2523.115
## 8      IF 2864.839

diamonds %>% group_by(cut,depth) %>% summarize(n=n()) %>% filter(depth>55,depth<70)

## # A tibble: 455 x 3
## # Groups:   cut [5]
##      cut depth     n
##    <ord> <dbl> <int>
##  1  Fair  55.1     3
##  2  Fair  55.2     6
##  3  Fair  55.3     5
##  4  Fair  55.4     2
##  5  Fair  55.5     3
##  6  Fair  55.6     4
##  7  Fair  55.8     7
##  8  Fair  55.9     9
##  9  Fair  56.0     5
## 10  Fair  56.1     5
## # ... with 445 more rows

Page 216:

#install.packages("Lahman")
library("Lahman")
Batting %>% filter(AB>0) %>% group_by(playerID) %>% summarize(ba=sum(H, na.rm=TRUE) / sum(AB, ra.rm=TRUE))

## # A tibble: 16,902 x 2
##     playerID         ba
##        <chr>      <dbl>
##  1 aardsda01 0.00000000
##  2 aaronha01 0.30497372
##  3 aaronto01 0.22857143
##  4  aasedo01 0.00000000
##  5  abadan01 0.09090909
##  6  abadfe01 0.10000000
##  7 abadijo01 0.22000000
##  8 abbated01 0.25353038
##  9 abbeybe01 0.16814159
## 10 abbeych01 0.28082192
## # ... with 16,892 more rows
…
